UK Biobank GWAS Studies: Cohorts and Bibliometric Analysis
…
# A tibble: 6 × 2
  PUBMED_ID     n
      <int> <int>
1  34662886  7972
2  39024449  7537
3  39528825  7008
4  38811844  6828
5  35870639  6790
6  35078996  4782

#cohorts per study
gwas_study_info |>
  group_by(PUBMED_ID)

# A tibble: 142,855 × 25
# Groups:   PUBMED_ID [7,326]
   DATE_ADDED_TO_CATALOG PUBMED_ID FIRST_AUTHOR DATE       JOURNAL   LINK  STUDY
   <IDate>                   <int> <chr>        <IDate>    <chr>     <chr> <chr>
 1 2018-01-17             29093273 Almgren P    2017-11-02 JCI Insi… www.… Gene…
 2 2018-01-17             29093273 Almgren P    2017-11-02 JCI Insi… www.… Gene…
 3 2018-01-17             29093273 Almgren P    2017-11-02 JCI Insi… www.… Gene…
 4 2018-01-17             29093273 Almgren P    2017-11-02 JCI Insi… www.… Gene…
 5 2018-01-17             29093273 Almgren P    2017-11-02 JCI Insi… www.… Gene…
 6 2018-01-17             29093273 Almgren P    2017-11-02 JCI Insi… www.… Gene…
 7 2018-01-17             29093273 Almgren P    2017-11-02 JCI Insi… www.… Gene…
 8 2018-01-17             29093273 Almgren P    2017-11-02 JCI Insi… www.… Gene…
 9 2018-01-17             29093273 Almgren P    2017-11-02 JCI Insi… www.… Gene…
10 2018-07-04             29499414 Pei YF       2018-02-27 Bone      www.… Join…
# ℹ 142,845 more rows
# ℹ 18 more variables: `DISEASE/TRAIT` <chr>, INITIAL_SAMPLE_SIZE <chr>,
#   REPLICATION_SAMPLE_SIZE <chr>, `PLATFORM_[SNPS_PASSING_QC]` <chr>,
#   ASSOCIATION_COUNT <int>, MAPPED_TRAIT <chr>, MAPPED_TRAIT_URI <chr>,
#   STUDY_ACCESSION <chr>, GENOTYPING_TECHNOLOGY <chr>, SUBMISSION_DATE <lgl>,
#   STATISTICAL_MODEL <lgl>, BACKGROUND_TRAIT <lgl>,
#   MAPPED_BACKGROUND_TRAIT <chr>, MAPPED_BACKGROUND_TRAIT_URI <chr>, …
…
