Collapse / filtering traits
…
# suspect: 
# metabolite measurement    http://www.ebi.ac.uk/efo/EFO_0004725

# An atlas of genetic influences on human blood metabolites.

# 36482414
# Publication: Comprehensive characterization of putative genetic influences on plasma metabolome in a pediatric cohort.

gwas_study_info |>
  dplyr::filter(MAPPED_TRAIT %in% unique_mapped_traits) |>
  group_by(PUBMED_ID, STUDY, COHORT) |>
  summarise(n_unmapped_per_study = n()) |>
  arrange(desc(n_unmapped_per_study))

# A tibble: 1,550 × 4
# Groups:   PUBMED_ID, STUDY [1,513]
   PUBMED_ID STUDY                                   COHORT n_unmapped_per_study
       <int> <chr>                                   <chr>                 <int>
 1  38412862 Genetic associations with ratios betwe… "UKBB"                 2821
 2  39528826 Genetic architecture of cerebrospinal … "Knig…                  381
 3  33634981 Genome-wide association study of metab… ""                      197
 4  24816252 An atlas of genetic influences on huma… "Twin…                  127
 5  36482414 Comprehensive characterization of puta… "othe…                  121
 6  37253714 Whole-Genome Sequencing Analysis of Hu… "ARIC…                   95
 7  37794183 Rare variant associations with plasma … "UKBB"                   89
 8  34737426 A generalized linear mixed model assoc… "UKBB"                   81
 9  26068415 Genome-wide association study identifi… "EGCU…                   76
10  35347128 Genome-wide association studies of met… "METS…                   55
# ℹ 1,540 more rows
…
