Disease investigated by ancestry
…
Joining with `by = join_by(STUDY_ACCESSION)`
`summarise()` has grouped output by 'BROAD_ANCESTRAL_CATEGORY'. You can
override using the `.groups` argument.

# A tibble: 803 × 3
# Groups:   BROAD_ANCESTRAL_CATEGORY [192]
   BROAD_ANCESTRAL_CATEGORY                               `DISEASE/TRAIT`      n
   <chr>                                                  <chr>            <int>
 1 Aboriginal Australian                                  Urinary albumi…    746
 2 Aboriginal Australian                                  Otitis media       391
 3 Aboriginal Australian                                  Type 2 diabetes    391
 4 Aboriginal Australian                                  Body mass index    361
 5 African American or Afro-Caribbean                     Cataracts       262576
 6 African American or Afro-Caribbean                     Body mass index 228346
 7 African American or Afro-Caribbean                     Type 2 diabetes 202731
 8 African American or Afro-Caribbean                     Diastolic bloo… 200474
 9 African American or Afro-Caribbean                     Systolic blood… 200474
10 African American or Afro-Caribbean, African unspecifi… Type 2 diabetes 287510
# ℹ 793 more rows

Disease statistics CDC

cdc_stats = data.table::fread("data/cdc/Underlying Cause of Death, 1999-2020.txt",
                              drop = c("Notes", "Race Code", "Cause of death Code")) %>% 
             filter(!if_any(everything(), ~.x == ""))

cdc_stats %>% 
  group_by(Race) %>% 
  slice_max(Deaths,n=10)

# A tibble: 40 × 6
# Groups:   Race [4]
   Race      `Cause of death` Deaths Population `Crude Rate` `Age Adjusted Rate`
   <chr>     <chr>             <int>    <int64> <chr>        <chr>              
 1 American… Atherosclerotic…  15927   88362592 18.0         33.9               
 2 American… Bronchus or lun…  15334   88362592 17.4         28.3               
 3 American… Acute myocardia…  13755   88362592 15.6         26.7               
 4 American… Chronic obstruc…  10500   88362592 11.9         22.0               
 5 American… Atherosclerotic…   9090   88362592 10.3         16.7               
 6 American… Unspecified dia…   8307   88362592 9.4          15.0               
 7 American… Alcoholic cirrh…   8129   88362592 9.2          10.7               
 8 American… Stroke, not spe…   6055   88362592 6.9          13.8               
 9 American… Pneumonia, unsp…   5728   88362592 6.5          12.5               
10 American… Unspecified dem…   5092   88362592 5.8          13.9               
# ℹ 30 more rows
…
