Replicate observed ancestry biases figures in GWAS dataset
…
gwas_extracted_pairs |>
  dplyr::filter(BROAD_ANCESTRAL_CATEGORY %in% c("NR, European",
                                                "European, NR",
                                                "European, Other"))

# A tibble: 154 × 6
   PUBMEDID number_label_matches   BROAD_ANCESTRAL_CATE…¹ INITIAL_SAMPLE_DESCR…²
      <int> <chr>                  <chr>                  <chr>                 
 1 18385738 1,926 European ance o… European, Other        1,926 European ance o…
 2 18385738 2,522 European and ot… European, Other        1,926 European ance o…
 3 19451621 1,821 cases            European, Other        1,821 cases, 2,258 co…
 4 19451621 2,258 controls         European, Other        1,821 cases, 2,258 co…
 5 20351715 4,387 European and un… European, NR           4,387 European and un…
 6 20351715 6,209 European and un… European, NR           4,387 European and un…
 7 20860503 10,365 cases           European, Other        10,365 cases, 16,110 …
 8 20860503 16,110 controls        European, Other        10,365 cases, 16,110 …
 9 21738484 1,190 European and un… NR, European           1,190 European and un…
10 21738484 401 European and unkn… NR, European           1,190 European and un…
# ℹ 144 more rows
# ℹ abbreviated names: ¹​BROAD_ANCESTRAL_CATEGORY, ²​INITIAL_SAMPLE_DESCRIPTION
# ℹ 2 more variables: number <int>, label <chr>

gwas_extracted_pairs |>
  dplyr::filter(!BROAD_ANCESTRAL_CATEGORY %in% c("NR, European",
                                                "European, NR",
                                                "European, Other"))

# A tibble: 142 × 6
   PUBMEDID number_label_matches   BROAD_ANCESTRAL_CATE…¹ INITIAL_SAMPLE_DESCR…²
      <int> <chr>                  <chr>                  <chr>                 
 1 19724244 90 Hispanic and Europ… European, Hispanic or… 90 Hispanic and Europ…
 2 19724244 90 Hispanic and Europ… European, Hispanic or… 90 Hispanic and Europ…
 3 20460622 973 incident AD cases  European, Hispanic or… 973 incident AD cases…
 4 20460622 2,033 prevalent AD ca… European, Hispanic or… 973 incident AD cases…
 5 20460622 22,604  controls of E… European, Hispanic or… 973 incident AD cases…
 6 23021708 132 African American   African American or A… 132 African American,…
 7 23021708 103 African American   African American or A… 132 African American,…
 8 23719583 79 European            European, Hispanic or… 79 European, African,…
 9 23719583 241 European           European, Hispanic or… 79 European, African,…
10 23838604 175 European           African American or A… 175 European, African…
# ℹ 132 more rows
# ℹ abbreviated names: ¹​BROAD_ANCESTRAL_CATEGORY, ²​INITIAL_SAMPLE_DESCRIPTION
# ℹ 2 more variables: number <int>, label <chr>
…
   label %in% c('South Asian ancestry individuals') ~ "South Asian",
  
   label %in% c('African American',
                "African American individuals") ~ 'African', 
   
   label %in% c('Asian', 
                'Asian ancestry cases', 
                'Asian ancestry controls') ~ 'Asian unspecified',
   
   label %in% c('Native American ancestry') ~ "Other",
   TRUE~BROAD_ANCESTRAL_CATEGORY
 )
 )

# A tibble: 142 × 5
   PUBMEDID BROAD_ANCESTRAL_CATEGORY                       label number label_v2
      <int> <chr>                                          <chr>  <int> <chr>   
 1 19724244 European, Hispanic or Latin American           Hisp…     90 Europea…
 2 19724244 European, Hispanic or Latin American           Hisp…     90 Europea…
 3 20460622 European, Hispanic or Latin American           inci…    973 Europea…
 4 20460622 European, Hispanic or Latin American           prev…   2033 Europea…
 5 20460622 European, Hispanic or Latin American           cont…  22604 Europea…
 6 23021708 African American or Afro-Caribbean, South Asi… Afri…    132 African 
 7 23021708 African American or Afro-Caribbean, South Asi… Afri…    103 African 
 8 23719583 European, Hispanic or Latin American, African… Euro…     79 European
 9 23719583 European, Hispanic or Latin American, African… Euro…    241 European
10 23838604 African American or Afro-Caribbean, European,… Euro…    175 European
# ℹ 132 more rows
…
Joining with `by = join_by(STUDY_ACCESSION)`
`summarise()` has grouped output by 'BROAD_ANCESTRAL_CATEGORY'. You can
override using the `.groups` argument.

# A tibble: 802 × 3
# Groups:   BROAD_ANCESTRAL_CATEGORY [192]
   BROAD_ANCESTRAL_CATEGORY                               `DISEASE/TRAIT`      n
   <chr>                                                  <chr>            <int>
 1 Aboriginal Australian                                  Urinary albumi…    746
 2 Aboriginal Australian                                  Otitis media       391
 3 Aboriginal Australian                                  Type 2 diabetes    391
 4 Aboriginal Australian                                  Body mass index    361
 5 African American or Afro-Caribbean                     Cataracts       262576
 6 African American or Afro-Caribbean                     Body mass index 228346
 7 African American or Afro-Caribbean                     Type 2 diabetes 202731
 8 African American or Afro-Caribbean                     Diastolic bloo… 200474
 9 African American or Afro-Caribbean                     Systolic blood… 200474
10 African American or Afro-Caribbean, African unspecifi… Type 2 diabetes 287510
# ℹ 792 more rows
…
