Get abstract text for GWAS Catalog studies
…
[1] 231

print("Number of unique pubmed ids for disease studies with full text retrieved:")

[1] "Number of unique pubmed ids for disease studies with full text retrieved:"

gwas_study_info |>
  filter(PUBMED_ID %in% full_text_pmids) |>
  select(PUBMED_ID, cause) |>
  distinct() |>
  group_by(cause) |>
  summarise(n = n()) 

# A tibble: 21 × 2
   cause                                                      n
   <chr>                                                  <int>
 1 Cervical cancer                                           22
 2 Chronic kidney disease due to diabetes mellitus type 1     3
 3 Chronic kidney disease due to diabetes mellitus type 2     5
 4 Chronic obstructive pulmonary disease                     17
 5 Cirrhosis and other chronic liver diseases                80
 6 Diabetes mellitus                                         87
 7 Intracerebral hemorrhage                                   7
 8 Ischemic heart disease                                    73
 9 Ischemic stroke                                           31
10 Larynx cancer                                             18
# ℹ 11 more rows
…
