GWAS Trait Categorisation
…
5 Summary of number of
disease studies (and studies of each kind of trait)

gwas_study_info |>
  group_by(MAPPED_TRAIT_CATEGORY, BACKGROUND_TRAIT_CATEGORY) |>
  summarise(n_studies = n()) |> 
  arrange(desc(n_studies))

# A tibble: 60 × 3
# Groups:   MAPPED_TRAIT_CATEGORY [16]
   MAPPED_TRAIT_CATEGORY         BACKGROUND_TRAIT_CATEGORY n_studies
   <chr>                         <chr>                         <int>
 1 Measurement                   <NA>                          91966
 2 Disease/Disorder              <NA>                          22284
 3 Measurement                   Disease/Disorder              18816
 4 Brain Measurement             <NA>                           7143
 5 Lipid/Cholesterol Measurement <NA>                           4150
 6 Seropositivity                <NA>                           2972
 7 Phenotypic Abnormality        <NA>                           2702
 8 Medical Procedure             <NA>                           1266
 9 Response                      <NA>                            987
10 Response                      Disease/Disorder                780
# ℹ 50 more rows
…
gwas_study_info |> 
  group_by(DISEASE_STUDY, 
           MAPPED_TRAIT_CATEGORY, 
           BACKGROUND_TRAIT_CATEGORY) |> 
  summarise(n = n()) 

# A tibble: 60 × 4
# Groups:   DISEASE_STUDY, MAPPED_TRAIT_CATEGORY [28]
   DISEASE_STUDY MAPPED_TRAIT_CATEGORY           BACKGROUND_TRAIT_CATEGORY     n
   <lgl>         <chr>                           <chr>                     <int>
 1 FALSE         BMI/Weight/Body Fat Measurement Measurement                   7
 2 FALSE         BMI/Weight/Body Fat Measurement Other                         6
 3 FALSE         BMI/Weight/Body Fat Measurement <NA>                        726
 4 FALSE         Behavior                        Measurement                   2
 5 FALSE         Behavior                        <NA>                        249
 6 FALSE         Blood Pressure Measurement      <NA>                        531
 7 FALSE         Brain Measurement               Measurement                   1
 8 FALSE         Brain Measurement               Response                      6
 9 FALSE         Brain Measurement               <NA>                       7143
10 FALSE         Environmental Factor            <NA>                        179
# ℹ 50 more rows
…
