GWAS Trait Categorisation
…
5 Saving GWAS trait
categories

gwas_study_info |>
  group_by(MAPPED_TRAIT_CATEGORY, BACKGROUND_TRAIT_CATEGORY) |>
  summarise(n_studies = n()) |> 
  arrange(desc(n_studies))

# A tibble: 33 × 3
# Groups:   MAPPED_TRAIT_CATEGORY [9]
   MAPPED_TRAIT_CATEGORY  BACKGROUND_TRAIT_CATEGORY n_studies
   <chr>                  <chr>                         <int>
 1 Measurement            <NA>                         101836
 2 Disease/Disorder       <NA>                          20314
 3 Measurement            Disease/Disorder              12223
 4 Other                  <NA>                           2725
 5 Phenotypic Abnormality <NA>                           2328
 6 Measurement            Measurement                     969
 7 Disease/Disorder       Disease/Disorder                549
 8 Injury                 <NA>                            508
 9 Phenotype              <NA>                            340
10 Other                  Disease/Disorder                335
# ℹ 23 more rows
…
